%YAML 1.1
%TAG !u! tag:unity3d.com,2011:
--- !u!114 &11400000
MonoBehaviour:
  m_ObjectHideFlags: 0
  m_CorrespondingSourceObject: {fileID: 0}
  m_PrefabInstance: {fileID: 0}
  m_PrefabAsset: {fileID: 0}
  m_GameObject: {fileID: 0}
  m_Enabled: 1
  m_EditorHideFlags: 0
  m_Script: {fileID: 11500000, guid: d6d59cd8cd3cd0847aad3c173d279482, type: 3}
  m_Name: Office
  m_EditorClassIdentifier: 
  _robberPrefab: {fileID: 7532103165563761564, guid: 3b680d9ca7f224842be6b663380f2659,
    type: 3}
  _name: Office
  _sceneIndex: 1
