%YAML 1.1
%TAG !u! tag:unity3d.com,2011:
--- !u!1001 &6404356592876637150
PrefabInstance:
  m_ObjectHideFlags: 0
  serializedVersion: 2
  m_Modification:
    m_TransformParent: {fileID: 0}
    m_Modifications:
    - target: {fileID: 4111461318384465403, guid: 31c52c28c5b8a4545852f4037d9cedfc,
        type: 3}
      propertyPath: m_LocalRotation.y
      value: 1
      objectReference: {fileID: 0}
    - target: {fileID: 4111461318384465403, guid: 31c52c28c5b8a4545852f4037d9cedfc,
        type: 3}
      propertyPath: m_LocalRotation.w
      value: 0
      objectReference: {fileID: 0}
    - target: {fileID: 6439994946651097562, guid: 31c52c28c5b8a4545852f4037d9cedfc,
        type: 3}
      propertyPath: m_Materials.Array.size
      value: 3
      objectReference: {fileID: 0}
    - target: {fileID: 6439994946651097562, guid: 31c52c28c5b8a4545852f4037d9cedfc,
        type: 3}
      propertyPath: m_Materials.Array.data[0]
      value: 
      objectReference: {fileID: 2100000, guid: 0311cbb0184a51845912c30ec478cb8e, type: 2}
    - target: {fileID: 6439994946651097562, guid: 31c52c28c5b8a4545852f4037d9cedfc,
        type: 3}
      propertyPath: m_Materials.Array.data[1]
      value: 
      objectReference: {fileID: 2100000, guid: 15cb6b096bb78c7479c93c6e26153387, type: 2}
    - target: {fileID: 6439994946651097562, guid: 31c52c28c5b8a4545852f4037d9cedfc,
        type: 3}
      propertyPath: m_Materials.Array.data[2]
      value: 
      objectReference: {fileID: 2100000, guid: 8621dfcb3dbf229428e45425021e0875, type: 2}
    - target: {fileID: 7245028782174292022, guid: 31c52c28c5b8a4545852f4037d9cedfc,
        type: 3}
      propertyPath: m_Name
      value: Monitor
      objectReference: {fileID: 0}
    - target: {fileID: 7249918745377971232, guid: 31c52c28c5b8a4545852f4037d9cedfc,
        type: 3}
      propertyPath: m_LocalPosition.x
      value: 0
      objectReference: {fileID: 0}
    - target: {fileID: 7249918745377971232, guid: 31c52c28c5b8a4545852f4037d9cedfc,
        type: 3}
      propertyPath: m_LocalPosition.y
      value: 0
      objectReference: {fileID: 0}
    - target: {fileID: 7249918745377971232, guid: 31c52c28c5b8a4545852f4037d9cedfc,
        type: 3}
      propertyPath: m_LocalPosition.z
      value: 0
      objectReference: {fileID: 0}
    - target: {fileID: 7249918745377971232, guid: 31c52c28c5b8a4545852f4037d9cedfc,
        type: 3}
      propertyPath: m_LocalRotation.x
      value: 0
      objectReference: {fileID: 0}
    - target: {fileID: 7249918745377971232, guid: 31c52c28c5b8a4545852f4037d9cedfc,
        type: 3}
      propertyPath: m_LocalRotation.y
      value: 0
      objectReference: {fileID: 0}
    - target: {fileID: 7249918745377971232, guid: 31c52c28c5b8a4545852f4037d9cedfc,
        type: 3}
      propertyPath: m_LocalRotation.z
      value: 0
      objectReference: {fileID: 0}
    - target: {fileID: 7249918745377971232, guid: 31c52c28c5b8a4545852f4037d9cedfc,
        type: 3}
      propertyPath: m_LocalRotation.w
      value: 1
      objectReference: {fileID: 0}
    - target: {fileID: 7249918745377971232, guid: 31c52c28c5b8a4545852f4037d9cedfc,
        type: 3}
      propertyPath: m_RootOrder
      value: 0
      objectReference: {fileID: 0}
    - target: {fileID: 7249918745377971232, guid: 31c52c28c5b8a4545852f4037d9cedfc,
        type: 3}
      propertyPath: m_LocalEulerAnglesHint.x
      value: 0
      objectReference: {fileID: 0}
    - target: {fileID: 7249918745377971232, guid: 31c52c28c5b8a4545852f4037d9cedfc,
        type: 3}
      propertyPath: m_LocalEulerAnglesHint.y
      value: 0
      objectReference: {fileID: 0}
    - target: {fileID: 7249918745377971232, guid: 31c52c28c5b8a4545852f4037d9cedfc,
        type: 3}
      propertyPath: m_LocalEulerAnglesHint.z
      value: 0
      objectReference: {fileID: 0}
    - target: {fileID: 7596112512660531392, guid: 31c52c28c5b8a4545852f4037d9cedfc,
        type: 3}
      propertyPath: _collectTime
      value: 1.5
      objectReference: {fileID: 0}
    - target: {fileID: 7596112512660531392, guid: 31c52c28c5b8a4545852f4037d9cedfc,
        type: 3}
      propertyPath: _basePrice
      value: 100
      objectReference: {fileID: 0}
    - target: {fileID: 8030229216248567648, guid: 31c52c28c5b8a4545852f4037d9cedfc,
        type: 3}
      propertyPath: m_Mesh
      value: 
      objectReference: {fileID: 4300000, guid: 934679b03cd0e784298507200fcd57d1, type: 2}
    m_RemovedComponents: []
  m_SourcePrefab: {fileID: 100100000, guid: 31c52c28c5b8a4545852f4037d9cedfc, type: 3}
